{
  "login": {
    "displayName": "Fabio Biondi",
    "role": "admin",
    "token": "ewofhw8r823hh23hf832"
  },
  "members": [
    {
      "id": 1,
      "name": "Pippo"
    },
    {
      "id": 2,
      "name": "Pluto"
    },
    {
      "id": 3,
      "name": "Topolino"
    }
  ],
  "validate": {
    "response": "ok"
  },
  "fake": {
    "response": "ok"
  }
}
